Lab 6 - Alternative
…
## Testing how your function handles multiple input variables
remove_outliers(diamonds, 
                price, 
                x, 
                y, 
                z)

# A tibble: 52,673 × 10
   carat cut       color clarity depth table price     x     y     z
   <dbl> <ord>     <ord> <ord>   <dbl> <dbl> <int> <dbl> <dbl> <dbl>
 1  0.23 Ideal     E     SI2      61.5    55   326  3.95  3.98  2.43
 2  0.21 Premium   E     SI1      59.8    61   326  3.89  3.84  2.31
 3  0.23 Good      E     VS1      56.9    65   327  4.05  4.07  2.31
 4  0.29 Premium   I     VS2      62.4    58   334  4.2   4.23  2.63
 5  0.31 Good      J     SI2      63.3    58   335  4.34  4.35  2.75
 6  0.24 Very Good J     VVS2     62.8    57   336  3.94  3.96  2.48
 7  0.24 Very Good I     VVS1     62.3    57   336  3.95  3.98  2.47
 8  0.26 Very Good H     SI1      61.9    55   337  4.07  4.11  2.53
 9  0.22 Fair      E     VS2      65.1    61   337  3.87  3.78  2.49
10  0.23 Very Good H     VS1      59.4    61   338  4     4.05  2.39
# ℹ 52,663 more rows

## Testing how your function handles an input that isn't numeric
remove_outliers(diamonds, 
                price, 
                color)

Warning in remove_outliers(diamonds, price, color): Skipping non-numeric column
color

# A tibble: 52,734 × 10
   carat cut       color clarity depth table price     x     y     z
   <dbl> <ord>     <ord> <ord>   <dbl> <dbl> <int> <dbl> <dbl> <dbl>
 1  0.23 Ideal     E     SI2      61.5    55   326  3.95  3.98  2.43
 2  0.21 Premium   E     SI1      59.8    61   326  3.89  3.84  2.31
 3  0.23 Good      E     VS1      56.9    65   327  4.05  4.07  2.31
 4  0.29 Premium   I     VS2      62.4    58   334  4.2   4.23  2.63
 5  0.31 Good      J     SI2      63.3    58   335  4.34  4.35  2.75
 6  0.24 Very Good J     VVS2     62.8    57   336  3.94  3.96  2.48
 7  0.24 Very Good I     VVS1     62.3    57   336  3.95  3.98  2.47
 8  0.26 Very Good H     SI1      61.9    55   337  4.07  4.11  2.53
 9  0.22 Fair      E     VS2      65.1    61   337  3.87  3.78  2.49
10  0.23 Very Good H     VS1      59.4    61   338  4     4.05  2.39
# ℹ 52,724 more rows

## Testing how your function handles a non-default sd_thresh
remove_outliers(diamonds, 
                price,
                x, 
                y, 
                z, 
                sd_thresh = 2)

# A tibble: 48,955 × 10
   carat cut       color clarity depth table price     x     y     z
   <dbl> <ord>     <ord> <ord>   <dbl> <dbl> <int> <dbl> <dbl> <dbl>
 1  0.23 Ideal     E     SI2      61.5    55   326  3.95  3.98  2.43
 2  0.21 Premium   E     SI1      59.8    61   326  3.89  3.84  2.31
 3  0.23 Good      E     VS1      56.9    65   327  4.05  4.07  2.31
 4  0.29 Premium   I     VS2      62.4    58   334  4.2   4.23  2.63
 5  0.31 Good      J     SI2      63.3    58   335  4.34  4.35  2.75
 6  0.24 Very Good J     VVS2     62.8    57   336  3.94  3.96  2.48
 7  0.24 Very Good I     VVS1     62.3    57   336  3.95  3.98  2.47
 8  0.26 Very Good H     SI1      61.9    55   337  4.07  4.11  2.53
 9  0.22 Fair      E     VS2      65.1    61   337  3.87  3.78  2.49
10  0.23 Very Good H     VS1      59.4    61   338  4     4.05  2.39
# ℹ 48,945 more rows
…
  if (!all(non_num)) {
    stop(
      str_c("One of the columns you entered is not numeric.")
      )
  }

  filtered_df <- df %>%
    filter(is.na({{arrival_time_var}}) | {{arrival_delay_var}} > 60 | {{departure_delay_var}} > 60)
  
  return(filtered_df)
}

filter_severe(flights, arr_delay, dep_delay, arr_time)

# A tibble: 40,262 × 19
    year month   day dep_time sched_dep_time dep_delay arr_time sched_arr_time
   <int> <int> <int>    <int>          <int>     <dbl>    <int>          <int>
 1  2013     1     1      811            630       101     1047            830
 2  2013     1     1      826            715        71     1136           1045
 3  2013     1     1      848           1835       853     1001           1950
 4  2013     1     1      957            733       144     1056            853
 5  2013     1     1     1114            900       134     1447           1222
 6  2013     1     1     1120            944        96     1331           1213
 7  2013     1     1     1255           1200        55     1451           1330
 8  2013     1     1     1301           1150        71     1518           1345
 9  2013     1     1     1337           1220        77     1649           1531
10  2013     1     1     1342           1320        22     1617           1504
# ℹ 40,252 more rows
# ℹ 11 more variables: arr_delay <dbl>, carrier <chr>, flight <int>,
#   tailnum <chr>, origin <chr>, dest <chr>, air_time <dbl>, distance <dbl>,
#   hour <dbl>, minute <dbl>, time_hour <dttm>
…
  if (!is.numeric({{hours}})) {
    stop(
      str_c("You must use a number for the `hours` input!")
      )
  }

  filtered_df <- df %>%
    filter(is.na({{arrival_time_var}}) | {{arrival_delay_var}} > hours*60 | {{departure_delay_var}} > hours*60)
  
  return(filtered_df)
}

filter_severe(flights, arr_delay, dep_delay, arr_time, hours=3)

# A tibble: 13,161 × 19
    year month   day dep_time sched_dep_time dep_delay arr_time sched_arr_time
   <int> <int> <int>    <int>          <int>     <dbl>    <int>          <int>
 1  2013     1     1      848           1835       853     1001           1950
 2  2013     1     1     1815           1325       290     2120           1542
 3  2013     1     1     1842           1422       260     1958           1535
 4  2013     1     1     2006           1630       216     2230           1848
 5  2013     1     1     2016           1930        46       NA           2220
 6  2013     1     1     2115           1700       255     2330           1920
 7  2013     1     1     2205           1720       285       46           2040
 8  2013     1     1     2312           2000       192       21           2110
 9  2013     1     1     2343           1724       379      314           1938
10  2013     1     1       NA           1630        NA       NA           1815
# ℹ 13,151 more rows
# ℹ 11 more variables: arr_delay <dbl>, carrier <chr>, flight <int>,
#   tailnum <chr>, origin <chr>, dest <chr>, air_time <dbl>, distance <dbl>,
#   hour <dbl>, minute <dbl>, time_hour <dttm>
…
  df %>%
    mutate(
      {{clock_time}} := case_when(
        !is.na({{clock_time}}) ~ floor({{clock_time}}/100) + ({{clock_time}} %% 100) / 60
      )
    )

}

standardize_time(flights, dep_time)

# A tibble: 336,776 × 19
    year month   day dep_time sched_dep_time dep_delay arr_time sched_arr_time
   <int> <int> <int>    <dbl>          <int>     <dbl>    <int>          <int>
 1  2013     1     1     5.28            515         2      830            819
 2  2013     1     1     5.55            529         4      850            830
 3  2013     1     1     5.7             540         2      923            850
 4  2013     1     1     5.73            545        -1     1004           1022
 5  2013     1     1     5.9             600        -6      812            837
 6  2013     1     1     5.9             558        -4      740            728
 7  2013     1     1     5.92            600        -5      913            854
 8  2013     1     1     5.95            600        -3      709            723
 9  2013     1     1     5.95            600        -3      838            846
10  2013     1     1     5.97            600        -2      753            745
# ℹ 336,766 more rows
# ℹ 11 more variables: arr_delay <dbl>, carrier <chr>, flight <int>,
#   tailnum <chr>, origin <chr>, dest <chr>, air_time <dbl>, distance <dbl>,
#   hour <dbl>, minute <dbl>, time_hour <dttm>
…
